Implementing code from the web
…
---

Now we want to use ggplot instead of base plot because it will give us more options. We will also load the population text to be able to use that 

```r
#read the pop data
pop.data<- read_delim(here::here("Maria/data/sparrow_pops.txt"),delim = "\t")
pop.data
```

```
## # A tibble: 130 x 2
##    ind     pop    
##    <chr>   <chr>  
##  1 5PMCos  House  
##  2 180bp   House  
##  3 430     Italian
##  4 8934547 House  
##  5 8L19766 House  
##  6 8L19786 House  
##  7 8L52141 House  
##  8 8L52830 House  
##  9 8L64869 House  
## 10 8L89915 House  
## # … with 120 more rows
```
…
